\relax 
\providecommand\hyper@newdestlabel[2]{}
\providecommand\babel@aux[2]{}
\@nameuse{bbl@beforestart}
\catcode `:\active 
\catcode `;\active 
\catcode `!\active 
\catcode `?\active 
\providecommand\HyperFirstAtBeginDocument{\AtBeginDocument}
\HyperFirstAtBeginDocument{\ifx\hyper@anchor\@undefined
\global\let\oldcontentsline\contentsline
\gdef\contentsline#1#2#3#4{\oldcontentsline{#1}{#2}{#3}}
\global\let\oldnewlabel\newlabel
\gdef\newlabel#1#2{\newlabelxx{#1}#2}
\gdef\newlabelxx#1#2#3#4#5#6{\oldnewlabel{#1}{{#2}{#3}}}
\AtEndDocument{\ifx\hyper@anchor\@undefined
\let\contentsline\oldcontentsline
\let\newlabel\oldnewlabel
\fi}
\fi}
\global\let\hyper@last\relax 
\gdef\HyperFirstAtBeginDocument#1{#1}
\providecommand\HyField@AuxAddToFields[1]{}
\providecommand\HyField@AuxAddToCoFields[2]{}
\pgfsyspdfmark {pgfid1}{4736286}{50644704}
\providecommand \oddpage@label [2]{}
\babel@aux{french}{}
\pgfsyspdfmark {pgfid2}{4736286}{50644704}
\pgfsyspdfmark {pgfid3}{4736286}{50644704}
\pgfsyspdfmark {pgfid4}{4736286}{50644704}
\pgfsyspdfmark {pgfid5}{4736286}{50644704}
\@writefile{toc}{\contentsline {chapter}{Préambule}{v}{chapter*.1}\protected@file@percent }
\@writefile{lof}{\addvspace {10\p@ }}
\@writefile{lot}{\addvspace {10\p@ }}
\pgfsyspdfmark {pgfid6}{4736286}{50644704}
\pgfsyspdfmark {pgfid7}{4736286}{50644704}
\@writefile{toc}{\contentsline {chapter}{Authentification}{vii}{chapter*.2}\protected@file@percent }
\@writefile{lof}{\addvspace {10\p@ }}
\@writefile{lot}{\addvspace {10\p@ }}
\pgfsyspdfmark {pgfid8}{4736286}{50644704}
\pgfsyspdfmark {pgfid9}{4736286}{50644704}
\pgfsyspdfmark {pgfid10}{4736286}{50644704}
\pgfsyspdfmark {pgfid11}{4736286}{50644704}
\pgfsyspdfmark {pgfid12}{4736286}{50644704}
\citation{SoftwareArchitectureGuide}
\pgfsyspdfmark {pgfid13}{4736286}{50644704}
\@writefile{toc}{\contentsline {chapter}{\numberline {1}Introduction}{1}{chapter.1}\protected@file@percent }
\@writefile{lof}{\addvspace {10\p@ }}
\@writefile{lot}{\addvspace {10\p@ }}
\newlabel{ch:intro}{{1}{1}{Introduction}{chapter.1}{}}
\@writefile{toc}{\contentsline {section}{\numberline {1.1}Motivation}{1}{section.1.1}\protected@file@percent }
\@writefile{toc}{\contentsline {subsection}{\numberline {1.1.1} problèmatique }{1}{subsection.1.1.1}\protected@file@percent }
\pgfsyspdfmark {pgfid14}{4736286}{50644704}
\@writefile{toc}{\contentsline {section}{\numberline {1.2}Tâche}{2}{section.1.2}\protected@file@percent }
\@writefile{toc}{\contentsline {subsection}{\numberline {1.2.1}Première objectif}{2}{subsection.1.2.1}\protected@file@percent }
\@writefile{toc}{\contentsline {subsection}{\numberline {1.2.2}Second objectif}{2}{subsection.1.2.2}\protected@file@percent }
\pgfsyspdfmark {pgfid15}{4736286}{50644704}
\@writefile{toc}{\contentsline {section}{\numberline {1.3}Evaluation}{3}{section.1.3}\protected@file@percent }
\@writefile{toc}{\contentsline {section}{\numberline {1.4}Aperçu}{3}{section.1.4}\protected@file@percent }
\@writefile{toc}{\contentsline {section}{\numberline {1.5}Remerciements}{3}{section.1.5}\protected@file@percent }
\@writefile{toc}{\contentsline {section}{\numberline {1.6} code }{3}{section.1.6}\protected@file@percent }
\pgfsyspdfmark {pgfid16}{4736286}{50644704}
\pgfsyspdfmark {pgfid17}{4736286}{50644704}
\@writefile{toc}{\contentsline {chapter}{\numberline {2}Architecture}{5}{chapter.2}\protected@file@percent }
\@writefile{lof}{\addvspace {10\p@ }}
\@writefile{lot}{\addvspace {10\p@ }}
\newlabel{chap:architecture}{{2}{5}{Architecture}{chapter.2}{}}
\@writefile{toc}{\contentsline {section}{\numberline {2.1} fonctionnement global }{5}{section.2.1}\protected@file@percent }
\citation{Vue}
\citation{D3}
\citation{spring}
\citation{swagger}
\pgfsyspdfmark {pgfid18}{4736286}{50644704}
\@writefile{toc}{\contentsline {section}{\numberline {2.2}frontend}{6}{section.2.2}\protected@file@percent }
\@writefile{toc}{\contentsline {section}{\numberline {2.3}serveur d’authentification}{6}{section.2.3}\protected@file@percent }
\pgfsyspdfmark {pgfid19}{4736286}{50644704}
\@writefile{toc}{\contentsline {section}{\numberline {2.4}orchestrateur}{7}{section.2.4}\protected@file@percent }
\@writefile{toc}{\contentsline {subsection}{\numberline {2.4.1} map d'identification }{7}{subsection.2.4.1}\protected@file@percent }
\@writefile{lof}{\contentsline {figure}{\numberline {2.1}{\ignorespaces  exemple de mappage d'une description }}{7}{figure.2.1}\protected@file@percent }
\citation{traefik}
\pgfsyspdfmark {pgfid20}{4736286}{50644704}
\@writefile{toc}{\contentsline {subsection}{\numberline {2.4.2} websocket }{8}{subsection.2.4.2}\protected@file@percent }
\@writefile{toc}{\contentsline {section}{\numberline {2.5}traefik}{8}{section.2.5}\protected@file@percent }
\newlabel{sec:traefik}{{2.5}{8}{traefik}{section.2.5}{}}
\pgfsyspdfmark {pgfid21}{4736286}{50644704}
\@writefile{toc}{\contentsline {chapter}{\numberline {3}Implementation}{9}{chapter.3}\protected@file@percent }
\@writefile{lof}{\addvspace {10\p@ }}
\@writefile{lot}{\addvspace {10\p@ }}
\newlabel{chap:impl}{{3}{9}{Implementation}{chapter.3}{}}
\@writefile{toc}{\contentsline {section}{\numberline {3.1} traefik et redirection}{9}{section.3.1}\protected@file@percent }
\@writefile{lof}{\contentsline {figure}{\numberline {3.1}{\ignorespaces  schema des redirections traefik }}{9}{figure.3.1}\protected@file@percent }
\newlabel{fig:traefik}{{3.1}{9}{schema des redirections traefik}{figure.3.1}{}}
\pgfsyspdfmark {pgfid22}{4736286}{50644704}
\@writefile{toc}{\contentsline {section}{\numberline {3.2}frontend}{10}{section.3.2}\protected@file@percent }
\@writefile{toc}{\contentsline {subsection}{\numberline {3.2.1} barre de navigation }{10}{subsection.3.2.1}\protected@file@percent }
\@writefile{lof}{\contentsline {figure}{\numberline {3.2}{\ignorespaces  barre de navigation lorsque l'utilisateur n'est pas connecté }}{10}{figure.3.2}\protected@file@percent }
\newlabel{fig:navbarLogout}{{3.2}{10}{barre de navigation lorsque l'utilisateur n'est pas connecté}{figure.3.2}{}}
\@writefile{lof}{\contentsline {figure}{\numberline {3.3}{\ignorespaces  barre de navigation lorsque l'utilisateur est connecté }}{10}{figure.3.3}\protected@file@percent }
\newlabel{fig:navbarLogin}{{3.3}{10}{barre de navigation lorsque l'utilisateur est connecté}{figure.3.3}{}}
\pgfsyspdfmark {pgfid23}{4736286}{50644704}
\@writefile{toc}{\contentsline {subsection}{\numberline {3.2.2} authentification et enregistement }{11}{subsection.3.2.2}\protected@file@percent }
\@writefile{lof}{\contentsline {figure}{\numberline {3.4}{\ignorespaces  formulaire de connection et d'enregistrement }}{11}{figure.3.4}\protected@file@percent }
\newlabel{fig:sign}{{3.4}{11}{formulaire de connection et d'enregistrement}{figure.3.4}{}}
\pgfsyspdfmark {pgfid24}{4736286}{50644704}
\@writefile{toc}{\contentsline {subsection}{\numberline {3.2.3}descripteur de pipeline}{12}{subsection.3.2.3}\protected@file@percent }
\@writefile{lof}{\contentsline {figure}{\numberline {3.5}{\ignorespaces  formulaire de redaction d'une nouvelle description }}{12}{figure.3.5}\protected@file@percent }
\newlabel{fig:sign}{{3.5}{12}{formulaire de redaction d'une nouvelle description}{figure.3.5}{}}
\pgfsyspdfmark {pgfid25}{4736286}{50644704}
\@writefile{toc}{\contentsline {subsection}{\numberline {3.2.4} sélection d’une description et exécution du pipeline}{13}{subsection.3.2.4}\protected@file@percent }
\@writefile{lof}{\contentsline {figure}{\numberline {3.6}{\ignorespaces  section framework }}{13}{figure.3.6}\protected@file@percent }
\newlabel{fig:package}{{3.6}{13}{section framework}{figure.3.6}{}}
\pgfsyspdfmark {pgfid26}{4736286}{50644704}
\@writefile{lof}{\contentsline {figure}{\numberline {3.7}{\ignorespaces  section commits de tout les repositories }}{14}{figure.3.7}\protected@file@percent }
\newlabel{fig:all}{{3.7}{14}{section commits de tout les repositories}{figure.3.7}{}}
\@writefile{lof}{\contentsline {figure}{\numberline {3.8}{\ignorespaces  section commits par repository }}{14}{figure.3.8}\protected@file@percent }
\newlabel{fig:by}{{3.8}{14}{section commits par repository}{figure.3.8}{}}
\citation{dockerode}
\pgfsyspdfmark {pgfid27}{4736286}{50644704}
\@writefile{lof}{\contentsline {figure}{\numberline {3.9}{\ignorespaces  section commits par framework }}{15}{figure.3.9}\protected@file@percent }
\newlabel{fig:language}{{3.9}{15}{section commits par framework}{figure.3.9}{}}
\@writefile{toc}{\contentsline {section}{\numberline {3.3}orchestrateur}{15}{section.3.3}\protected@file@percent }
\pgfsyspdfmark {pgfid28}{4736286}{50644704}
\@writefile{toc}{\contentsline {subsection}{\numberline {3.3.1}description}{16}{subsection.3.3.1}\protected@file@percent }
\@writefile{toc}{\contentsline {subsection}{\numberline {3.3.2}pipeline}{16}{subsection.3.3.2}\protected@file@percent }
\pgfsyspdfmark {pgfid29}{4736286}{50644704}
\@writefile{toc}{\contentsline {subsection}{\numberline {3.3.3} serveur d'authentification}{17}{subsection.3.3.3}\protected@file@percent }
\pgfsyspdfmark {pgfid30}{4736286}{50644704}
\pgfsyspdfmark {pgfid32}{4736286}{50644704}
\@writefile{toc}{\contentsline {chapter}{\numberline {4}descripteur de pipeline}{19}{chapter.4}\protected@file@percent }
\@writefile{lof}{\addvspace {10\p@ }}
\@writefile{lot}{\addvspace {10\p@ }}
\newlabel{chap:yaml}{{4}{19}{descripteur de pipeline}{chapter.4}{}}
\@writefile{toc}{\contentsline {section}{\numberline {4.1}général}{19}{section.4.1}\protected@file@percent }
\pgfsyspdfmark {pgfid34}{4736286}{50644704}
\@writefile{toc}{\contentsline {section}{\numberline {4.2}Variables}{20}{section.4.2}\protected@file@percent }
\newlabel{sec:variables}{{4.2}{20}{Variables}{section.4.2}{}}
\@writefile{toc}{\contentsline {subsection}{\numberline {4.2.1}utilisation des variables}{20}{subsection.4.2.1}\protected@file@percent }
\newlabel{sec:usevar}{{4.2.1}{20}{utilisation des variables}{subsection.4.2.1}{}}
\citation{gitlabArtifact}
\pgfsyspdfmark {pgfid37}{4736286}{50644704}
\@writefile{toc}{\contentsline {section}{\numberline {4.3}tâche}{21}{section.4.3}\protected@file@percent }
\newlabel{sec:tasks}{{4.3}{21}{tâche}{section.4.3}{}}
\@writefile{toc}{\contentsline {subsection}{\numberline {4.3.1}artifacts et dependencies}{21}{subsection.4.3.1}\protected@file@percent }
\pgfsyspdfmark {pgfid41}{4736286}{50644704}
\@writefile{toc}{\contentsline {section}{\numberline {4.4}tâche utilisable}{22}{section.4.4}\protected@file@percent }
\newlabel{sec:tache}{{4.4}{22}{tâche utilisable}{section.4.4}{}}
\@writefile{toc}{\contentsline {subsection}{\numberline {4.4.1}clone}{22}{subsection.4.4.1}\protected@file@percent }
\pgfsyspdfmark {pgfid44}{4736286}{50644704}
\@writefile{toc}{\contentsline {subsection}{\numberline {4.4.2}logs}{23}{subsection.4.4.2}\protected@file@percent }
\pgfsyspdfmark {pgfid47}{4736286}{50644704}
\@writefile{toc}{\contentsline {subsection}{\numberline {4.4.3} analyse }{24}{subsection.4.4.3}\protected@file@percent }
\pgfsyspdfmark {pgfid49}{4736286}{50644704}
\pgfsyspdfmark {pgfid50}{4736286}{50644704}
\pgfsyspdfmark {pgfid51}{4736286}{50644704}
\@writefile{toc}{\contentsline {chapter}{\numberline {5}Evaluation}{27}{chapter.5}\protected@file@percent }
\@writefile{lof}{\addvspace {10\p@ }}
\@writefile{lot}{\addvspace {10\p@ }}
\newlabel{chap:eval}{{5}{27}{Evaluation}{chapter.5}{}}
\@writefile{toc}{\contentsline {subsection}{\numberline {5.0.1}Représentation}{27}{subsection.5.0.1}\protected@file@percent }
\@writefile{toc}{\contentsline {subsection}{\numberline {5.0.2}exemple de Questionnaire}{27}{subsection.5.0.2}\protected@file@percent }
\pgfsyspdfmark {pgfid52}{4736286}{50644704}
\@writefile{toc}{\contentsline {section}{\numberline {5.1}métrique}{28}{section.5.1}\protected@file@percent }
\newlabel{sec:metrique}{{5.1}{28}{métrique}{section.5.1}{}}
\@writefile{toc}{\contentsline {section}{\numberline {5.2} automatisation de la récolte de donnée }{28}{section.5.2}\protected@file@percent }
\pgfsyspdfmark {pgfid53}{4736286}{50644704}
\pgfsyspdfmark {pgfid54}{4736286}{50644704}
\pgfsyspdfmark {pgfid55}{4736286}{50644704}
\@writefile{toc}{\contentsline {chapter}{\numberline {6} amélioration et évolution }{31}{chapter.6}\protected@file@percent }
\@writefile{lof}{\addvspace {10\p@ }}
\@writefile{lot}{\addvspace {10\p@ }}
\newlabel{ch:amelio}{{6}{31}{amélioration et évolution}{chapter.6}{}}
\@writefile{toc}{\contentsline {section}{\numberline {6.1} base de donnée }{31}{section.6.1}\protected@file@percent }
\pgfsyspdfmark {pgfid56}{4736286}{50644704}
\@writefile{toc}{\contentsline {section}{\numberline {6.2} DNS et surcharge du serveur }{32}{section.6.2}\protected@file@percent }
\@writefile{toc}{\contentsline {section}{\numberline {6.3} nombre de commits en absolue }{32}{section.6.3}\protected@file@percent }
\@writefile{toc}{\contentsline {section}{\numberline {6.4} évolution }{32}{section.6.4}\protected@file@percent }
\pgfsyspdfmark {pgfid57}{4736286}{50644704}
\@writefile{lof}{\contentsline {figure}{\numberline {6.1}{\ignorespaces  exemple de résultat d'une analyse détaillée expres }}{33}{figure.6.1}\protected@file@percent }
\newlabel{fig:explExpress}{{6.1}{33}{exemple de résultat d'une analyse détaillée expres}{figure.6.1}{}}
\pgfsyspdfmark {pgfid58}{4736286}{50644704}
\pgfsyspdfmark {pgfid59}{4736286}{50644704}
\@writefile{toc}{\contentsline {chapter}{\numberline {7}conclusion}{35}{chapter.7}\protected@file@percent }
\@writefile{lof}{\addvspace {10\p@ }}
\@writefile{lot}{\addvspace {10\p@ }}
\newlabel{chap:conc}{{7}{35}{conclusion}{chapter.7}{}}
\@writefile{toc}{\contentsline {section}{\numberline {7.1}difficulté rencontrer}{35}{section.7.1}\protected@file@percent }
\pgfsyspdfmark {pgfid60}{4736286}{50644704}
\@writefile{toc}{\contentsline {section}{\numberline {7.2} contributions }{36}{section.7.2}\protected@file@percent }
\@writefile{toc}{\contentsline {section}{\numberline {7.3}résumer des connaissances apprises}{36}{section.7.3}\protected@file@percent }
\@writefile{toc}{\contentsline {section}{\numberline {7.4}recommandation}{36}{section.7.4}\protected@file@percent }
\@writefile{toc}{\contentsline {section}{\numberline {7.5} futur possible de ce projet }{36}{section.7.5}\protected@file@percent }
\pgfsyspdfmark {pgfid61}{4736286}{50644704}
\pgfsyspdfmark {pgfid62}{4736286}{50644704}
\bibstyle{plain}
\bibdata{chapters/biblio}
\bibcite{dockerode}{1}
\bibcite{D3}{2}
\bibcite{gitlabArtifact}{3}
\bibcite{SoftwareArchitectureGuide}{4}
\bibcite{ArchitectureAndDesign}{5}
\bibcite{spring}{6}
\bibcite{swagger}{7}
\bibcite{traefik}{8}
\bibcite{Vue}{9}
\citation{*}
\pgfsyspdfmark {pgfid63}{4736286}{50644704}
\@writefile{toc}{\contentsline {chapter}{Bibliographie}{39}{section.7.5}\protected@file@percent }
\pgfsyspdfmark {pgfid64}{4736286}{50644704}
\pgfsyspdfmark {pgfid65}{4736286}{50644704}
\newlabel{LastPage}{{}{41}{}{page.41}{}}
\xdef\lastpage@lastpage{41}
\xdef\lastpage@lastpageHy{41}
