C:\Users\Alexandre\Documents\cours\semestre_6\segfault\microservices\auth-service\users-specs\target\generated-sources\swagger\.\io\heig\users\auth\ApiKeyAuth.java
C:\Users\Alexandre\Documents\cours\semestre_6\segfault\microservices\auth-service\users-specs\target\generated-sources\swagger\.\io\heig\users\api\DefaultApi.java
C:\Users\Alexandre\Documents\cours\semestre_6\segfault\microservices\auth-service\users-specs\target\generated-sources\swagger\.\io\heig\users\Pair.java
C:\Users\Alexandre\Documents\cours\semestre_6\segfault\microservices\auth-service\users-specs\target\generated-sources\swagger\.\io\heig\users\api\dto\User.java
C:\Users\Alexandre\Documents\cours\semestre_6\segfault\microservices\auth-service\users-specs\target\generated-sources\swagger\.\src\test\java\io\heig\users\api\dto\CredentialsTest.java
C:\Users\Alexandre\Documents\cours\semestre_6\segfault\microservices\auth-service\users-specs\target\generated-sources\swagger\.\src\test\java\io\heig\users\api\dto\UserTest.java
C:\Users\Alexandre\Documents\cours\semestre_6\segfault\microservices\auth-service\users-specs\target\generated-sources\swagger\.\io\heig\users\ApiResponse.java
C:\Users\Alexandre\Documents\cours\semestre_6\segfault\microservices\auth-service\users-specs\target\generated-sources\swagger\.\io\heig\users\auth\HttpBasicAuth.java
C:\Users\Alexandre\Documents\cours\semestre_6\segfault\microservices\auth-service\users-specs\target\generated-sources\swagger\.\io\heig\users\api\dto\Token.java
C:\Users\Alexandre\Documents\cours\semestre_6\segfault\microservices\auth-service\users-specs\target\generated-sources\swagger\.\io\heig\users\ApiCallback.java
C:\Users\Alexandre\Documents\cours\semestre_6\segfault\microservices\auth-service\users-specs\target\generated-sources\swagger\.\io\heig\users\ApiException.java
C:\Users\Alexandre\Documents\cours\semestre_6\segfault\microservices\auth-service\users-specs\target\generated-sources\swagger\.\io\heig\users\Configuration.java
C:\Users\Alexandre\Documents\cours\semestre_6\segfault\microservices\auth-service\users-specs\target\generated-sources\swagger\.\io\heig\users\GzipRequestInterceptor.java
C:\Users\Alexandre\Documents\cours\semestre_6\segfault\microservices\auth-service\users-specs\target\generated-sources\swagger\.\src\test\java\io\heig\users\api\DefaultApiTest.java
C:\Users\Alexandre\Documents\cours\semestre_6\segfault\microservices\auth-service\users-specs\target\generated-sources\swagger\.\io\heig\users\api\dto\Credentials.java
C:\Users\Alexandre\Documents\cours\semestre_6\segfault\microservices\auth-service\users-specs\target\generated-sources\swagger\.\src\test\java\io\heig\users\api\dto\TokenTest.java
C:\Users\Alexandre\Documents\cours\semestre_6\segfault\microservices\auth-service\users-specs\target\generated-sources\swagger\.\io\heig\users\ProgressResponseBody.java
C:\Users\Alexandre\Documents\cours\semestre_6\segfault\microservices\auth-service\users-specs\target\generated-sources\swagger\.\io\heig\users\StringUtil.java
C:\Users\Alexandre\Documents\cours\semestre_6\segfault\microservices\auth-service\users-specs\target\generated-sources\swagger\.\io\heig\users\ApiClient.java
C:\Users\Alexandre\Documents\cours\semestre_6\segfault\microservices\auth-service\users-specs\target\generated-sources\swagger\.\io\heig\users\JSON.java
C:\Users\Alexandre\Documents\cours\semestre_6\segfault\microservices\auth-service\users-specs\target\generated-sources\swagger\.\io\heig\users\auth\Authentication.java
C:\Users\Alexandre\Documents\cours\semestre_6\segfault\microservices\auth-service\users-specs\target\generated-sources\swagger\.\io\heig\users\api\dto\UserDTO.java
C:\Users\Alexandre\Documents\cours\semestre_6\segfault\microservices\auth-service\users-specs\target\generated-sources\swagger\.\src\test\java\io\heig\users\api\dto\UserDTOTest.java
C:\Users\Alexandre\Documents\cours\semestre_6\segfault\microservices\auth-service\users-specs\target\generated-sources\swagger\.\io\heig\users\ProgressRequestBody.java
C:\Users\Alexandre\Documents\cours\semestre_6\segfault\microservices\auth-service\users-specs\target\generated-sources\swagger\.\io\heig\users\auth\HttpBearerAuth.java
